
vp3687o705ci0hdarq3ssu9i03 -- 23-02-2018 14:12:43 -- 66.70.182.111 -- facebook -- 0 -- wsl_process_login -- https://www.nxt-chptr.com/login/?action=wordpress_social_authenticate&mode=login&provider=facebook&redirect_to=https%3A%2F%2Fwww.nxt-chptr.com%2F -- 
vp3687o705ci0hdarq3ssu9i03 -- 23-02-2018 14:12:43 -- 66.70.182.111 -- facebook -- 0 -- wsl_process_login_begin_start -- https://www.nxt-chptr.com/login/?action=wordpress_social_authenticate&mode=login&provider=facebook&redirect_to=https%3A%2F%2Fwww.nxt-chptr.com%2F -- 
vp3687o705ci0hdarq3ssu9i03 -- 23-02-2018 14:12:43 -- 66.70.182.111 -- facebook -- 0 -- wsl_process_login -- https://www.nxt-chptr.com/login/?action=wordpress_social_authenticate&mode=login&provider=facebook&redirect_to=https%3A%2F%2Fwww.nxt-chptr.com%2F&redirect_to_provider=true -- 
vp3687o705ci0hdarq3ssu9i03 -- 23-02-2018 14:12:43 -- 66.70.182.111 -- facebook -- 0 -- wsl_process_login_begin_start -- https://www.nxt-chptr.com/login/?action=wordpress_social_authenticate&mode=login&provider=facebook&redirect_to=https%3A%2F%2Fwww.nxt-chptr.com%2F&redirect_to_provider=true -- 
vp3687o705ci0hdarq3ssu9i03 -- 23-02-2018 14:12:43 -- 66.70.182.111 -- facebook -- 0 -- wsl_hook_process_login_before_hybridauth_authenticate -- https://www.nxt-chptr.com/login/?action=wordpress_social_authenticate&mode=login&provider=facebook&redirect_to=https%3A%2F%2Fwww.nxt-chptr.com%2F&redirect_to_provider=true -- 
b1rgdqmlr9p378v63dqkv47l97 -- 23-02-2018 14:12:55 -- 66.70.182.111 -- facebook -- 0 -- wsl_process_login -- https://www.nxt-chptr.com/login/?action=wordpress_social_authenticate&mode=login&provider=facebook&redirect_to=https%3A%2F%2Fwww.nxt-chptr.com%2Fcontact-us%2F -- 
b1rgdqmlr9p378v63dqkv47l97 -- 23-02-2018 14:12:55 -- 66.70.182.111 -- facebook -- 0 -- wsl_process_login_begin_start -- https://www.nxt-chptr.com/login/?action=wordpress_social_authenticate&mode=login&provider=facebook&redirect_to=https%3A%2F%2Fwww.nxt-chptr.com%2Fcontact-us%2F -- 
b1rgdqmlr9p378v63dqkv47l97 -- 23-02-2018 14:12:55 -- 66.70.182.111 -- facebook -- 0 -- wsl_process_login -- https://www.nxt-chptr.com/login/?action=wordpress_social_authenticate&mode=login&provider=facebook&redirect_to=https%3A%2F%2Fwww.nxt-chptr.com%2Fcontact-us%2F&redirect_to_provider=true -- 
b1rgdqmlr9p378v63dqkv47l97 -- 23-02-2018 14:12:55 -- 66.70.182.111 -- facebook -- 0 -- wsl_process_login_begin_start -- https://www.nxt-chptr.com/login/?action=wordpress_social_authenticate&mode=login&provider=facebook&redirect_to=https%3A%2F%2Fwww.nxt-chptr.com%2Fcontact-us%2F&redirect_to_provider=true -- 
b1rgdqmlr9p378v63dqkv47l97 -- 23-02-2018 14:12:55 -- 66.70.182.111 -- facebook -- 0 -- wsl_hook_process_login_before_hybridauth_authenticate -- https://www.nxt-chptr.com/login/?action=wordpress_social_authenticate&mode=login&provider=facebook&redirect_to=https%3A%2F%2Fwww.nxt-chptr.com%2Fcontact-us%2F&redirect_to_provider=true -- 
cg81hq20ohmi469rsgh6m1ule6 -- 23-02-2018 14:12:56 -- 66.70.182.111 -- facebook -- 0 -- wsl_process_login -- https://www.nxt-chptr.com/login/?action=wordpress_social_authenticate&mode=login&provider=facebook&redirect_to=https%3A%2F%2Fwww.nxt-chptr.com%2Fself-discovery%2F -- 
cg81hq20ohmi469rsgh6m1ule6 -- 23-02-2018 14:12:56 -- 66.70.182.111 -- facebook -- 0 -- wsl_process_login_begin_start -- https://www.nxt-chptr.com/login/?action=wordpress_social_authenticate&mode=login&provider=facebook&redirect_to=https%3A%2F%2Fwww.nxt-chptr.com%2Fself-discovery%2F -- 
cg81hq20ohmi469rsgh6m1ule6 -- 23-02-2018 14:12:57 -- 66.70.182.111 -- facebook -- 0 -- wsl_process_login -- https://www.nxt-chptr.com/login/?action=wordpress_social_authenticate&mode=login&provider=facebook&redirect_to=https%3A%2F%2Fwww.nxt-chptr.com%2Fself-discovery%2F&redirect_to_provider=true -- 
cg81hq20ohmi469rsgh6m1ule6 -- 23-02-2018 14:12:57 -- 66.70.182.111 -- facebook -- 0 -- wsl_process_login_begin_start -- https://www.nxt-chptr.com/login/?action=wordpress_social_authenticate&mode=login&provider=facebook&redirect_to=https%3A%2F%2Fwww.nxt-chptr.com%2Fself-discovery%2F&redirect_to_provider=true -- 
cg81hq20ohmi469rsgh6m1ule6 -- 23-02-2018 14:12:57 -- 66.70.182.111 -- facebook -- 0 -- wsl_hook_process_login_before_hybridauth_authenticate -- https://www.nxt-chptr.com/login/?action=wordpress_social_authenticate&mode=login&provider=facebook&redirect_to=https%3A%2F%2Fwww.nxt-chptr.com%2Fself-discovery%2F&redirect_to_provider=true -- 
qcj6v1jrgbjpnue9tj7oinapv6 -- 23-02-2018 14:12:57 -- 66.70.182.111 -- facebook -- 0 -- wsl_process_login -- https://www.nxt-chptr.com/login/?action=wordpress_social_authenticate&mode=login&provider=facebook&redirect_to=https%3A%2F%2Fwww.nxt-chptr.com%2Fabout-us%2F -- 
qcj6v1jrgbjpnue9tj7oinapv6 -- 23-02-2018 14:12:57 -- 66.70.182.111 -- facebook -- 0 -- wsl_process_login_begin_start -- https://www.nxt-chptr.com/login/?action=wordpress_social_authenticate&mode=login&provider=facebook&redirect_to=https%3A%2F%2Fwww.nxt-chptr.com%2Fabout-us%2F -- 
qcj6v1jrgbjpnue9tj7oinapv6 -- 23-02-2018 14:12:58 -- 66.70.182.111 -- facebook -- 0 -- wsl_process_login -- https://www.nxt-chptr.com/login/?action=wordpress_social_authenticate&mode=login&provider=facebook&redirect_to=https%3A%2F%2Fwww.nxt-chptr.com%2Fabout-us%2F&redirect_to_provider=true -- 
qcj6v1jrgbjpnue9tj7oinapv6 -- 23-02-2018 14:12:58 -- 66.70.182.111 -- facebook -- 0 -- wsl_process_login_begin_start -- https://www.nxt-chptr.com/login/?action=wordpress_social_authenticate&mode=login&provider=facebook&redirect_to=https%3A%2F%2Fwww.nxt-chptr.com%2Fabout-us%2F&redirect_to_provider=true -- 
qcj6v1jrgbjpnue9tj7oinapv6 -- 23-02-2018 14:12:58 -- 66.70.182.111 -- facebook -- 0 -- wsl_hook_process_login_before_hybridauth_authenticate -- https://www.nxt-chptr.com/login/?action=wordpress_social_authenticate&mode=login&provider=facebook&redirect_to=https%3A%2F%2Fwww.nxt-chptr.com%2Fabout-us%2F&redirect_to_provider=true -- 
pufojltbkigm0houmqdo1ro1f3 -- 23-02-2018 14:12:58 -- 66.70.182.111 -- facebook -- 0 -- wsl_process_login -- https://www.nxt-chptr.com/login/?action=wordpress_social_authenticate&mode=login&provider=facebook&redirect_to=https%3A%2F%2Fwww.nxt-chptr.com%2Fprivacy-policy%2F -- 
pufojltbkigm0houmqdo1ro1f3 -- 23-02-2018 14:12:58 -- 66.70.182.111 -- facebook -- 0 -- wsl_process_login_begin_start -- https://www.nxt-chptr.com/login/?action=wordpress_social_authenticate&mode=login&provider=facebook&redirect_to=https%3A%2F%2Fwww.nxt-chptr.com%2Fprivacy-policy%2F -- 
pufojltbkigm0houmqdo1ro1f3 -- 23-02-2018 14:12:59 -- 66.70.182.111 -- facebook -- 0 -- wsl_process_login -- https://www.nxt-chptr.com/login/?action=wordpress_social_authenticate&mode=login&provider=facebook&redirect_to=https%3A%2F%2Fwww.nxt-chptr.com%2Fprivacy-policy%2F&redirect_to_provider=true -- 
pufojltbkigm0houmqdo1ro1f3 -- 23-02-2018 14:12:59 -- 66.70.182.111 -- facebook -- 0 -- wsl_process_login_begin_start -- https://www.nxt-chptr.com/login/?action=wordpress_social_authenticate&mode=login&provider=facebook&redirect_to=https%3A%2F%2Fwww.nxt-chptr.com%2Fprivacy-policy%2F&redirect_to_provider=true -- 
pufojltbkigm0houmqdo1ro1f3 -- 23-02-2018 14:12:59 -- 66.70.182.111 -- facebook -- 0 -- wsl_hook_process_login_before_hybridauth_authenticate -- https://www.nxt-chptr.com/login/?action=wordpress_social_authenticate&mode=login&provider=facebook&redirect_to=https%3A%2F%2Fwww.nxt-chptr.com%2Fprivacy-policy%2F&redirect_to_provider=true -- 
52e512fg1npfv2c436n3v42g61 -- 23-02-2018 14:13:00 -- 66.70.182.111 -- facebook -- 0 -- wsl_process_login -- https://www.nxt-chptr.com/login/?action=wordpress_social_authenticate&mode=login&provider=facebook&redirect_to=https%3A%2F%2Fwww.nxt-chptr.com%2Fterms-and-conditions%2F -- 
52e512fg1npfv2c436n3v42g61 -- 23-02-2018 14:13:00 -- 66.70.182.111 -- facebook -- 0 -- wsl_process_login_begin_start -- https://www.nxt-chptr.com/login/?action=wordpress_social_authenticate&mode=login&provider=facebook&redirect_to=https%3A%2F%2Fwww.nxt-chptr.com%2Fterms-and-conditions%2F -- 
52e512fg1npfv2c436n3v42g61 -- 23-02-2018 14:13:00 -- 66.70.182.111 -- facebook -- 0 -- wsl_process_login -- https://www.nxt-chptr.com/login/?action=wordpress_social_authenticate&mode=login&provider=facebook&redirect_to=https%3A%2F%2Fwww.nxt-chptr.com%2Fterms-and-conditions%2F&redirect_to_provider=true -- 
52e512fg1npfv2c436n3v42g61 -- 23-02-2018 14:13:00 -- 66.70.182.111 -- facebook -- 0 -- wsl_process_login_begin_start -- https://www.nxt-chptr.com/login/?action=wordpress_social_authenticate&mode=login&provider=facebook&redirect_to=https%3A%2F%2Fwww.nxt-chptr.com%2Fterms-and-conditions%2F&redirect_to_provider=true -- 
52e512fg1npfv2c436n3v42g61 -- 23-02-2018 14:13:00 -- 66.70.182.111 -- facebook -- 0 -- wsl_hook_process_login_before_hybridauth_authenticate -- https://www.nxt-chptr.com/login/?action=wordpress_social_authenticate&mode=login&provider=facebook&redirect_to=https%3A%2F%2Fwww.nxt-chptr.com%2Fterms-and-conditions%2F&redirect_to_provider=true -- 
esug13keb8s1fq3jstqqcbbj34 -- 23-02-2018 14:13:12 -- 66.70.182.111 -- facebook -- 0 -- wsl_process_login -- https://www.nxt-chptr.com/login/?action=wordpress_social_authenticate&mode=login&provider=facebook&redirect_to=https%3A%2F%2Fwww.nxt-chptr.com%2Fmembership%2F -- 
esug13keb8s1fq3jstqqcbbj34 -- 23-02-2018 14:13:12 -- 66.70.182.111 -- facebook -- 0 -- wsl_process_login_begin_start -- https://www.nxt-chptr.com/login/?action=wordpress_social_authenticate&mode=login&provider=facebook&redirect_to=https%3A%2F%2Fwww.nxt-chptr.com%2Fmembership%2F -- 
esug13keb8s1fq3jstqqcbbj34 -- 23-02-2018 14:13:13 -- 66.70.182.111 -- facebook -- 0 -- wsl_process_login -- https://www.nxt-chptr.com/login/?action=wordpress_social_authenticate&mode=login&provider=facebook&redirect_to=https%3A%2F%2Fwww.nxt-chptr.com%2Fmembership%2F&redirect_to_provider=true -- 
esug13keb8s1fq3jstqqcbbj34 -- 23-02-2018 14:13:13 -- 66.70.182.111 -- facebook -- 0 -- wsl_process_login_begin_start -- https://www.nxt-chptr.com/login/?action=wordpress_social_authenticate&mode=login&provider=facebook&redirect_to=https%3A%2F%2Fwww.nxt-chptr.com%2Fmembership%2F&redirect_to_provider=true -- 
esug13keb8s1fq3jstqqcbbj34 -- 23-02-2018 14:13:13 -- 66.70.182.111 -- facebook -- 0 -- wsl_hook_process_login_before_hybridauth_authenticate -- https://www.nxt-chptr.com/login/?action=wordpress_social_authenticate&mode=login&provider=facebook&redirect_to=https%3A%2F%2Fwww.nxt-chptr.com%2Fmembership%2F&redirect_to_provider=true -- 
vbr4e1b6e2fao2854eterrf4h7 -- 23-02-2018 14:13:14 -- 66.70.182.111 -- facebook -- 0 -- wsl_process_login -- https://www.nxt-chptr.com/login/?action=wordpress_social_authenticate&mode=login&provider=facebook&redirect_to=https%3A%2F%2Fwww.nxt-chptr.com%2Fpeer-discovery%2F -- 
vbr4e1b6e2fao2854eterrf4h7 -- 23-02-2018 14:13:14 -- 66.70.182.111 -- facebook -- 0 -- wsl_process_login_begin_start -- https://www.nxt-chptr.com/login/?action=wordpress_social_authenticate&mode=login&provider=facebook&redirect_to=https%3A%2F%2Fwww.nxt-chptr.com%2Fpeer-discovery%2F -- 
vbr4e1b6e2fao2854eterrf4h7 -- 23-02-2018 14:13:14 -- 66.70.182.111 -- facebook -- 0 -- wsl_process_login -- https://www.nxt-chptr.com/login/?action=wordpress_social_authenticate&mode=login&provider=facebook&redirect_to=https%3A%2F%2Fwww.nxt-chptr.com%2Fpeer-discovery%2F&redirect_to_provider=true -- 
vbr4e1b6e2fao2854eterrf4h7 -- 23-02-2018 14:13:14 -- 66.70.182.111 -- facebook -- 0 -- wsl_process_login_begin_start -- https://www.nxt-chptr.com/login/?action=wordpress_social_authenticate&mode=login&provider=facebook&redirect_to=https%3A%2F%2Fwww.nxt-chptr.com%2Fpeer-discovery%2F&redirect_to_provider=true -- 
vbr4e1b6e2fao2854eterrf4h7 -- 23-02-2018 14:13:14 -- 66.70.182.111 -- facebook -- 0 -- wsl_hook_process_login_before_hybridauth_authenticate -- https://www.nxt-chptr.com/login/?action=wordpress_social_authenticate&mode=login&provider=facebook&redirect_to=https%3A%2F%2Fwww.nxt-chptr.com%2Fpeer-discovery%2F&redirect_to_provider=true -- 
4h2h4vvjfdsjc6edrs70og8f26 -- 23-02-2018 14:13:15 -- 66.70.182.111 -- facebook -- 0 -- wsl_process_login -- https://www.nxt-chptr.com/login/?action=wordpress_social_authenticate&mode=login&provider=facebook&redirect_to=https%3A%2F%2Fwww.nxt-chptr.com%2Fcareer-discovery%2F -- 
4h2h4vvjfdsjc6edrs70og8f26 -- 23-02-2018 14:13:15 -- 66.70.182.111 -- facebook -- 0 -- wsl_process_login_begin_start -- https://www.nxt-chptr.com/login/?action=wordpress_social_authenticate&mode=login&provider=facebook&redirect_to=https%3A%2F%2Fwww.nxt-chptr.com%2Fcareer-discovery%2F -- 
4h2h4vvjfdsjc6edrs70og8f26 -- 23-02-2018 14:13:16 -- 66.70.182.111 -- facebook -- 0 -- wsl_process_login -- https://www.nxt-chptr.com/login/?action=wordpress_social_authenticate&mode=login&provider=facebook&redirect_to=https%3A%2F%2Fwww.nxt-chptr.com%2Fcareer-discovery%2F&redirect_to_provider=true -- 
4h2h4vvjfdsjc6edrs70og8f26 -- 23-02-2018 14:13:16 -- 66.70.182.111 -- facebook -- 0 -- wsl_process_login_begin_start -- https://www.nxt-chptr.com/login/?action=wordpress_social_authenticate&mode=login&provider=facebook&redirect_to=https%3A%2F%2Fwww.nxt-chptr.com%2Fcareer-discovery%2F&redirect_to_provider=true -- 
4h2h4vvjfdsjc6edrs70og8f26 -- 23-02-2018 14:13:16 -- 66.70.182.111 -- facebook -- 0 -- wsl_hook_process_login_before_hybridauth_authenticate -- https://www.nxt-chptr.com/login/?action=wordpress_social_authenticate&mode=login&provider=facebook&redirect_to=https%3A%2F%2Fwww.nxt-chptr.com%2Fcareer-discovery%2F&redirect_to_provider=true -- 
boi26055bqn0k08qe2is3gshn0 -- 23-02-2018 14:13:17 -- 66.70.182.111 -- facebook -- 0 -- wsl_process_login -- https://www.nxt-chptr.com/login/?action=wordpress_social_authenticate&mode=login&provider=facebook&redirect_to=https%3A%2F%2Fwww.nxt-chptr.com%2Flogin%2F -- 
boi26055bqn0k08qe2is3gshn0 -- 23-02-2018 14:13:17 -- 66.70.182.111 -- facebook -- 0 -- wsl_process_login_begin_start -- https://www.nxt-chptr.com/login/?action=wordpress_social_authenticate&mode=login&provider=facebook&redirect_to=https%3A%2F%2Fwww.nxt-chptr.com%2Flogin%2F -- 
boi26055bqn0k08qe2is3gshn0 -- 23-02-2018 14:13:17 -- 66.70.182.111 -- facebook -- 0 -- wsl_process_login -- https://www.nxt-chptr.com/login/?action=wordpress_social_authenticate&mode=login&provider=facebook&redirect_to=https%3A%2F%2Fwww.nxt-chptr.com%2Flogin%2F&redirect_to_provider=true -- 
boi26055bqn0k08qe2is3gshn0 -- 23-02-2018 14:13:17 -- 66.70.182.111 -- facebook -- 0 -- wsl_process_login_begin_start -- https://www.nxt-chptr.com/login/?action=wordpress_social_authenticate&mode=login&provider=facebook&redirect_to=https%3A%2F%2Fwww.nxt-chptr.com%2Flogin%2F&redirect_to_provider=true -- 
boi26055bqn0k08qe2is3gshn0 -- 23-02-2018 14:13:17 -- 66.70.182.111 -- facebook -- 0 -- wsl_hook_process_login_before_hybridauth_authenticate -- https://www.nxt-chptr.com/login/?action=wordpress_social_authenticate&mode=login&provider=facebook&redirect_to=https%3A%2F%2Fwww.nxt-chptr.com%2Flogin%2F&redirect_to_provider=true -- 
jaqaqhlgai6hfp126tld6p5lq4 -- 23-02-2018 14:13:18 -- 66.70.182.111 -- facebook -- 0 -- wsl_process_login -- https://www.nxt-chptr.com/login/?action=wordpress_social_authenticate&mode=login&provider=facebook&redirect_to=https%3A%2F%2Fwww.nxt-chptr.com%2Flogin%2F%3Fregistration%3Ddisabled -- 
jaqaqhlgai6hfp126tld6p5lq4 -- 23-02-2018 14:13:18 -- 66.70.182.111 -- facebook -- 0 -- wsl_process_login_begin_start -- https://www.nxt-chptr.com/login/?action=wordpress_social_authenticate&mode=login&provider=facebook&redirect_to=https%3A%2F%2Fwww.nxt-chptr.com%2Flogin%2F%3Fregistration%3Ddisabled -- 
jaqaqhlgai6hfp126tld6p5lq4 -- 23-02-2018 14:13:19 -- 66.70.182.111 -- facebook -- 0 -- wsl_process_login -- https://www.nxt-chptr.com/login/?action=wordpress_social_authenticate&mode=login&provider=facebook&redirect_to=https%3A%2F%2Fwww.nxt-chptr.com%2Flogin%2F%3Fregistration%3Ddisabled&redirect_to_provider=true -- 
jaqaqhlgai6hfp126tld6p5lq4 -- 23-02-2018 14:13:19 -- 66.70.182.111 -- facebook -- 0 -- wsl_process_login_begin_start -- https://www.nxt-chptr.com/login/?action=wordpress_social_authenticate&mode=login&provider=facebook&redirect_to=https%3A%2F%2Fwww.nxt-chptr.com%2Flogin%2F%3Fregistration%3Ddisabled&redirect_to_provider=true -- 
jaqaqhlgai6hfp126tld6p5lq4 -- 23-02-2018 14:13:19 -- 66.70.182.111 -- facebook -- 0 -- wsl_hook_process_login_before_hybridauth_authenticate -- https://www.nxt-chptr.com/login/?action=wordpress_social_authenticate&mode=login&provider=facebook&redirect_to=https%3A%2F%2Fwww.nxt-chptr.com%2Flogin%2F%3Fregistration%3Ddisabled&redirect_to_provider=true -- 