<svg xmlns="http://www.w3.org/2000/svg" width="21" height="18" viewBox="0 0 21 18">
    <path fill="none" fill-rule="evenodd" stroke="#575757" stroke-linecap="round" stroke-linejoin="round" stroke-width="4" d="M2 8.441L7.727 15.5 18.5 2"/>
</svg>
