<svg xmlns="http://www.w3.org/2000/svg" width="31" height="31" viewBox="0 0 31 31">
    <path fill="#575757" fill-rule="evenodd" d="M15.39.095C6.93.095.07 6.9.07 15.292c0 8.393 6.858 15.196 15.318 15.196s15.319-6.803 15.319-15.196C30.708 6.9 23.848.095 15.389.095zm4.053 15.134h-2.652v9.384h-3.932V15.23h-1.87v-3.314h1.87V9.768c0-1.536.736-3.935 3.969-3.935l2.91.01v3.22h-2.113c-.345 0-.833.17-.833.9v1.953h2.997l-.346 3.313z"/>
</svg>
