<svg xmlns="http://www.w3.org/2000/svg" width="194" height="24" viewBox="0 0 194 24">
    <g fill="#F6A23B" fill-rule="evenodd">
        <path d="M90.582 23.894c-6.865 0-11.962-5.235-11.962-11.854v-.066C78.62 5.421 83.618.052 90.782.052c4.4 0 7.03 1.45 9.197 3.557L96.713 7.33c-1.799-1.613-3.632-2.601-5.964-2.601-3.933 0-6.765 3.227-6.765 7.18v.065c0 3.952 2.766 7.244 6.765 7.244 2.666 0 4.298-1.054 6.13-2.7l3.267 3.26c-2.4 2.536-5.066 4.116-9.564 4.116M118.84 23.5v-9.254h-9.463v9.253h-5.132V.448h5.132V9.57h9.463V.448h5.132v23.051zM142.834 8.516c0-2.272-1.6-3.49-4.165-3.49h-3.966v7.047h4.065c2.566 0 4.066-1.515 4.066-3.49v-.067zm-4.232 8.068h-3.9V23.5h-5.13V.448h9.53c5.565 0 8.93 3.26 8.93 7.969v.066c0 5.335-4.2 8.101-9.43 8.101zM16.408.352v14.194L5.478.352H.749v23.052H5.81V8.75l11.297 14.654h4.365V.352zM162.395 5.124V23.5h-5.132V5.124h-7.098V.448h19.328v4.676zM187.688 8.319c0-2.173-1.533-3.293-4.032-3.293h-5.1v6.619h5.2c2.499 0 3.932-1.317 3.932-3.26v-.066zm-.1 15.18l-4.998-7.376h-4.033v7.376h-5.131V.448h10.663c5.498 0 8.797 2.866 8.797 7.607v.066c0 3.721-2.033 6.06-4.998 7.146l5.698 8.232h-5.998zM64.122 23.5h-5.13V5.123h-7.1V.448H71.22v4.676h-7.098M36.861 11.67l-.426-.642-2.755-4.143-4.268-6.42h-5.998l7.798 11.329-8.132 11.724h5.833l4.615-6.88 2.864-4.27z"/>
        <path d="M36.857 11.67l.425-.642 2.756-4.143 4.267-6.42h6l-7.798 11.329 8.13 11.724h-5.831l-4.616-6.88-2.864-4.27z"/>
    </g>
</svg>
