<svg xmlns="http://www.w3.org/2000/svg" xmlns:xlink="http://www.w3.org/1999/xlink" width="23" height="68" viewBox="0 0 23 68">
    <defs>
        <path id="a" d="M1571.932 2828H1575l-30-20-30 20h3.068l26.932-17.955 26.932 17.955z"/>
    </defs>
    <use fill="#61C1B6" fill-rule="evenodd" stroke="#61C1B6" stroke-width="2" transform="rotate(90 2170 659)" xlink:href="#a"/>
</svg>
