﻿Title,URLs
"About Us",https://www.nxt-chptr.com/old/about-us/,
Activity,https://www.nxt-chptr.com/old/activity/,
"Advanced Search",https://www.nxt-chptr.com/old/jobs/advanced-search/,
"Advanced Search",https://www.nxt-chptr.com/old/resumes/advanced-search/,
"Become a Life Coach with NXT-CHPTR",https://www.nxt-chptr.com/old/become-a-life-coach-with-nxt-chptr/,
"Candidate Panel",https://www.nxt-chptr.com/old/candidate-panel/,
"Candidate Registration",https://www.nxt-chptr.com/old/candidate-panel/candidate-registration/,
"Changing Careers &#8211; The Key Factors to Success",https://www.nxt-chptr.com/old/changing-careers-the-key-factors-to-success/,
"Community Board",https://www.nxt-chptr.com/old/community-board/,
"Contact Us",https://www.nxt-chptr.com/old/contact-us/,
"Employer Registration",https://www.nxt-chptr.com/old/community-board/employer-registration/,
"Group Video Coaching",https://www.nxt-chptr.com/old/group-video-coaching/,
Groups,https://www.nxt-chptr.com/old/groups/,
Home,https://www.nxt-chptr.com/old/,
"How To Change Careers",https://www.nxt-chptr.com/old/how-to-change-careers/,
Jobs,https://www.nxt-chptr.com/old/jobs/,
"Log In",https://www.nxt-chptr.com/old/login/,
"Log Out",https://www.nxt-chptr.com/old/logout/,
"Lost Password",https://www.nxt-chptr.com/old/lostpassword/,
Members,https://www.nxt-chptr.com/old/members/,
"Membership Billing",https://www.nxt-chptr.com/old/personal-area/my-account/membership-billing/,
"Membership Cancel",https://www.nxt-chptr.com/old/personal-area/my-account/membership-cancel/,
"Membership Checkout",https://www.nxt-chptr.com/old/personal-area/my-account/membership-checkout/,
"Membership Confirmation",https://www.nxt-chptr.com/old/personal-area/my-account/membership-confirmation/,
"Membership Invoice",https://www.nxt-chptr.com/old/personal-area/my-account/membership-invoice/,
"Membership Levels",https://www.nxt-chptr.com/old/personal-area/my-account/membership-levels/,
"Mom Profiles",https://www.nxt-chptr.com/old/mom-profiles/,
"My Account",https://www.nxt-chptr.com/old/personal-area/my-account/,
Options,https://www.nxt-chptr.com/old/options/,
"Peer Discovery",https://www.nxt-chptr.com/old/peer-discovery/,
"Peer Matching",https://www.nxt-chptr.com/old/personal-area/peer-matching/,
"Peer matching form",https://www.nxt-chptr.com/old/peer-matching-form/,
"Personal Area",https://www.nxt-chptr.com/old/personal-area/,
"Post a Job",https://www.nxt-chptr.com/old/jobs/post-a-job/,
"Privacy Policy",https://www.nxt-chptr.com/old/privacy-policy/,
Register,https://www.nxt-chptr.com/old/register/,
"Reset Password",https://www.nxt-chptr.com/old/resetpass/,
Resources,https://www.nxt-chptr.com/old/resources/,
Resumes,https://www.nxt-chptr.com/old/resumes/,
"Sample Page",https://www.nxt-chptr.com/old/sample-page/,
"Self Discovery",https://www.nxt-chptr.com/old/self-discovery/,
"Terms and Conditions",https://www.nxt-chptr.com/old/terms-and-conditions/,
"Test Results",https://www.nxt-chptr.com/old/personal-area/test-results/,
